{
    "asset": {
        "generator": "FBX2glTF v0.13.1",
        "version": "2.0"
    },
    "scene": 0,
    "buffers": [
        {
            "byteLength": 1905176,
            "uri": "buffer.bin"
        }
    ],
    "bufferViews": [
        {
            "buffer": 0,
            "byteLength": 1192,
            "byteOffset": 0
        },
        {
            "buffer": 0,
            "byteLength": 3576,
            "byteOffset": 1192
        },
        {
            "buffer": 0,
            "byteLength": 4768,
            "byteOffset": 4768
        },
        {
            "buffer": 0,
            "byteLength": 4768,
            "byteOffset": 9536
        },
        {
            "buffer": 0,
            "byteLength": 4768,
            "byteOffset": 14304
        },
        {
            "buffer": 0,
            "byteLength": 4768,
            "byteOffset": 19072
        },
        {
            "buffer": 0,
            "byteLength": 4768,
            "byteOffset": 23840
        },
        {
            "buffer": 0,
            "byteLength": 4768,
            "byteOffset": 28608
        },
        {
            "buffer": 0,
            "byteLength": 4768,
            "byteOffset": 33376
        },
        {
            "buffer": 0,
            "byteLength": 4768,
            "byteOffset": 38144
        },
        {
            "buffer": 0,
            "byteLength": 4768,
            "byteOffset": 42912
        },
        {
            "buffer": 0,
            "byteLength": 4768,
            "byteOffset": 47680
        },
        {
            "buffer": 0,
            "byteLength": 4768,
            "byteOffset": 52448
        },
        {
            "buffer": 0,
            "byteLength": 4768,
            "byteOffset": 57216
        },
        {
            "buffer": 0,
            "byteLength": 4768,
            "byteOffset": 61984
        },
        {
            "buffer": 0,
            "byteLength": 4768,
            "byteOffset": 66752
        },
        {
            "buffer": 0,
            "byteLength": 4768,
            "byteOffset": 71520
        },
        {
            "buffer": 0,
            "byteLength": 4768,
            "byteOffset": 76288
        },
        {
            "buffer": 0,
            "byteLength": 4768,
            "byteOffset": 81056
        },
        {
            "buffer": 0,
            "byteLength": 4768,
            "byteOffset": 85824
        },
        {
            "buffer": 0,
            "byteLength": 4768,
            "byteOffset": 90592
        },
        {
            "buffer": 0,
            "byteLength": 4768,
            "byteOffset": 95360
        },
        {
            "buffer": 0,
            "byteLength": 4768,
            "byteOffset": 100128
        },
        {
            "buffer": 0,
            "byteLength": 4768,
            "byteOffset": 104896
        },
        {
            "buffer": 0,
            "byteLength": 4768,
            "byteOffset": 109664
        },
        {
            "buffer": 0,
            "byteLength": 4768,
            "byteOffset": 114432
        },
        {
            "buffer": 0,
            "byteLength": 4768,
            "byteOffset": 119200
        },
        {
            "buffer": 0,
            "byteLength": 4768,
            "byteOffset": 123968
        },
        {
            "buffer": 0,
            "byteLength": 4768,
            "byteOffset": 128736
        },
        {
            "buffer": 0,
            "byteLength": 4768,
            "byteOffset": 133504
        },
        {
            "buffer": 0,
            "byteLength": 4768,
            "byteOffset": 138272
        },
        {
            "buffer": 0,
            "byteLength": 4768,
            "byteOffset": 143040
        },
        {
            "buffer": 0,
            "byteLength": 4768,
            "byteOffset": 147808
        },
        {
            "buffer": 0,
            "byteLength": 4768,
            "byteOffset": 152576
        },
        {
            "buffer": 0,
            "byteLength": 4768,
            "byteOffset": 157344
        },
        {
            "buffer": 0,
            "byteLength": 4768,
            "byteOffset": 162112
        },
        {
            "buffer": 0,
            "byteLength": 4768,
            "byteOffset": 166880
        },
        {
            "buffer": 0,
            "byteLength": 4768,
            "byteOffset": 171648
        },
        {
            "buffer": 0,
            "byteLength": 4768,
            "byteOffset": 176416
        },
        {
            "buffer": 0,
            "byteLength": 4768,
            "byteOffset": 181184
        },
        {
            "buffer": 0,
            "byteLength": 4768,
            "byteOffset": 185952
        },
        {
            "buffer": 0,
            "byteLength": 4768,
            "byteOffset": 190720
        },
        {
            "buffer": 0,
            "byteLength": 4768,
            "byteOffset": 195488
        },
        {
            "buffer": 0,
            "byteLength": 4768,
            "byteOffset": 200256
        },
        {
            "buffer": 0,
            "byteLength": 4768,
            "byteOffset": 205024
        },
        {
            "buffer": 0,
            "byteLength": 4768,
            "byteOffset": 209792
        },
        {
            "buffer": 0,
            "byteLength": 4768,
            "byteOffset": 214560
        },
        {
            "buffer": 0,
            "byteLength": 4768,
            "byteOffset": 219328
        },
        {
            "buffer": 0,
            "byteLength": 4768,
            "byteOffset": 224096
        },
        {
            "buffer": 0,
            "byteLength": 4768,
            "byteOffset": 228864
        },
        {
            "buffer": 0,
            "byteLength": 4768,
            "byteOffset": 233632
        },
        {
            "buffer": 0,
            "byteLength": 4768,
            "byteOffset": 238400
        },
        {
            "buffer": 0,
            "byteLength": 4768,
            "byteOffset": 243168
        },
        {
            "buffer": 0,
            "byteLength": 4768,
            "byteOffset": 247936
        },
        {
            "buffer": 0,
            "byteLength": 102072,
            "byteOffset": 252704,
            "target": 34963
        },
        {
            "buffer": 0,
            "byteLength": 110964,
            "byteOffset": 354776,
            "target": 34962
        },
        {
            "buffer": 0,
            "byteLength": 110964,
            "byteOffset": 465740,
            "target": 34962
        },
        {
            "buffer": 0,
            "byteLength": 73976,
            "byteOffset": 576704,
            "target": 34962
        },
        {
            "buffer": 0,
            "byteLength": 73976,
            "byteOffset": 650680,
            "target": 34962
        },
        {
            "buffer": 0,
            "byteLength": 73976,
            "byteOffset": 724656,
            "target": 34962
        },
        {
            "buffer": 0,
            "byteLength": 147952,
            "byteOffset": 798632,
            "target": 34962
        },
        {
            "buffer": 0,
            "byteLength": 147952,
            "byteOffset": 946584,
            "target": 34962
        },
        {
            "buffer": 0,
            "byteLength": 25416,
            "byteOffset": 1094536,
            "target": 34963
        },
        {
            "buffer": 0,
            "byteLength": 28524,
            "byteOffset": 1119952,
            "target": 34962
        },
        {
            "buffer": 0,
            "byteLength": 28524,
            "byteOffset": 1148476,
            "target": 34962
        },
        {
            "buffer": 0,
            "byteLength": 19016,
            "byteOffset": 1177000,
            "target": 34962
        },
        {
            "buffer": 0,
            "byteLength": 19016,
            "byteOffset": 1196016,
            "target": 34962
        },
        {
            "buffer": 0,
            "byteLength": 19016,
            "byteOffset": 1215032,
            "target": 34962
        },
        {
            "buffer": 0,
            "byteLength": 38032,
            "byteOffset": 1234048,
            "target": 34962
        },
        {
            "buffer": 0,
            "byteLength": 38032,
            "byteOffset": 1272080,
            "target": 34962
        },
        {
            "buffer": 0,
            "byteLength": 17112,
            "byteOffset": 1310112,
            "target": 34963
        },
        {
            "buffer": 0,
            "byteLength": 19584,
            "byteOffset": 1327224,
            "target": 34962
        },
        {
            "buffer": 0,
            "byteLength": 19584,
            "byteOffset": 1346808,
            "target": 34962
        },
        {
            "buffer": 0,
            "byteLength": 13056,
            "byteOffset": 1366392,
            "target": 34962
        },
        {
            "buffer": 0,
            "byteLength": 13056,
            "byteOffset": 1379448,
            "target": 34962
        },
        {
            "buffer": 0,
            "byteLength": 13056,
            "byteOffset": 1392504,
            "target": 34962
        },
        {
            "buffer": 0,
            "byteLength": 26112,
            "byteOffset": 1405560,
            "target": 34962
        },
        {
            "buffer": 0,
            "byteLength": 26112,
            "byteOffset": 1431672,
            "target": 34962
        },
        {
            "buffer": 0,
            "byteLength": 32112,
            "byteOffset": 1457784,
            "target": 34963
        },
        {
            "buffer": 0,
            "byteLength": 46824,
            "byteOffset": 1489896,
            "target": 34962
        },
        {
            "buffer": 0,
            "byteLength": 46824,
            "byteOffset": 1536720,
            "target": 34962
        },
        {
            "buffer": 0,
            "byteLength": 31216,
            "byteOffset": 1583544,
            "target": 34962
        },
        {
            "buffer": 0,
            "byteLength": 31216,
            "byteOffset": 1614760,
            "target": 34962
        },
        {
            "buffer": 0,
            "byteLength": 31216,
            "byteOffset": 1645976,
            "target": 34962
        },
        {
            "buffer": 0,
            "byteLength": 62432,
            "byteOffset": 1677192,
            "target": 34962
        },
        {
            "buffer": 0,
            "byteLength": 62432,
            "byteOffset": 1739624,
            "target": 34962
        },
        {
            "buffer": 0,
            "byteLength": 12240,
            "byteOffset": 1802056,
            "target": 34963
        },
        {
            "buffer": 0,
            "byteLength": 12912,
            "byteOffset": 1814296,
            "target": 34962
        },
        {
            "buffer": 0,
            "byteLength": 12912,
            "byteOffset": 1827208,
            "target": 34962
        },
        {
            "buffer": 0,
            "byteLength": 8608,
            "byteOffset": 1840120,
            "target": 34962
        },
        {
            "buffer": 0,
            "byteLength": 8608,
            "byteOffset": 1848728,
            "target": 34962
        },
        {
            "buffer": 0,
            "byteLength": 8608,
            "byteOffset": 1857336,
            "target": 34962
        },
        {
            "buffer": 0,
            "byteLength": 17216,
            "byteOffset": 1865944,
            "target": 34962
        },
        {
            "buffer": 0,
            "byteLength": 17216,
            "byteOffset": 1883160,
            "target": 34962
        },
        {
            "buffer": 0,
            "byteLength": 2688,
            "byteOffset": 1900376
        },
        {
            "buffer": 0,
            "byteLength": 192,
            "byteOffset": 1903064
        },
        {
            "buffer": 0,
            "byteLength": 128,
            "byteOffset": 1903256
        },
        {
            "buffer": 0,
            "byteLength": 1344,
            "byteOffset": 1903384
        },
        {
            "buffer": 0,
            "byteLength": 448,
            "byteOffset": 1904728
        }
    ],
    "scenes": [
        {
            "name": "Root Scene",
            "nodes": [
                0
            ]
        }
    ],
    "accessors": [
        {
            "componentType": 5126,
            "type": "SCALAR",
            "count": 298,
            "bufferView": 0,
            "byteOffset": 0,
            "min": [
                0.0
            ],
            "max": [
                9.89999961853027
            ]
        },
        {
            "componentType": 5126,
            "type": "VEC3",
            "count": 298,
            "bufferView": 1,
            "byteOffset": 0
        },
        {
            "componentType": 5126,
            "type": "VEC4",
            "count": 298,
            "bufferView": 2,
            "byteOffset": 0
        },
        {
            "componentType": 5126,
            "type": "VEC4",
            "count": 298,
            "bufferView": 3,
            "byteOffset": 0
        },
        {
            "componentType": 5126,
            "type": "VEC4",
            "count": 298,
            "bufferView": 4,
            "byteOffset": 0
        },
        {
            "componentType": 5126,
            "type": "VEC4",
            "count": 298,
            "bufferView": 5,
            "byteOffset": 0
        },
        {
            "componentType": 5126,
            "type": "VEC4",
            "count": 298,
            "bufferView": 6,
            "byteOffset": 0
        },
        {
            "componentType": 5126,
            "type": "VEC4",
            "count": 298,
            "bufferView": 7,
            "byteOffset": 0
        },
        {
            "componentType": 5126,
            "type": "VEC4",
            "count": 298,
            "bufferView": 8,
            "byteOffset": 0
        },
        {
            "componentType": 5126,
            "type": "VEC4",
            "count": 298,
            "bufferView": 9,
            "byteOffset": 0
        },
        {
            "componentType": 5126,
            "type": "VEC4",
            "count": 298,
            "bufferView": 10,
            "byteOffset": 0
        },
        {
            "componentType": 5126,
            "type": "VEC4",
            "count": 298,
            "bufferView": 11,
            "byteOffset": 0
        },
        {
            "componentType": 5126,
            "type": "VEC4",
            "count": 298,
            "bufferView": 12,
            "byteOffset": 0
        },
        {
            "componentType": 5126,
            "type": "VEC4",
            "count": 298,
            "bufferView": 13,
            "byteOffset": 0
        },
        {
            "componentType": 5126,
            "type": "VEC4",
            "count": 298,
            "bufferView": 14,
            "byteOffset": 0
        },
        {
            "componentType": 5126,
            "type": "VEC4",
            "count": 298,
            "bufferView": 15,
            "byteOffset": 0
        },
        {
            "componentType": 5126,
            "type": "VEC4",
            "count": 298,
            "bufferView": 16,
            "byteOffset": 0
        },
        {
            "componentType": 5126,
            "type": "VEC4",
            "count": 298,
            "bufferView": 17,
            "byteOffset": 0
        },
        {
            "componentType": 5126,
            "type": "VEC4",
            "count": 298,
            "bufferView": 18,
            "byteOffset": 0
        },
        {
            "componentType": 5126,
            "type": "VEC4",
            "count": 298,
            "bufferView": 19,
            "byteOffset": 0
        },
        {
            "componentType": 5126,
            "type": "VEC4",
            "count": 298,
            "bufferView": 20,
            "byteOffset": 0
        },
        {
            "componentType": 5126,
            "type": "VEC4",
            "count": 298,
            "bufferView": 21,
            "byteOffset": 0
        },
        {
            "componentType": 5126,
            "type": "VEC4",
            "count": 298,
            "bufferView": 22,
            "byteOffset": 0
        },
        {
            "componentType": 5126,
            "type": "VEC4",
            "count": 298,
            "bufferView": 23,
            "byteOffset": 0
        },
        {
            "componentType": 5126,
            "type": "VEC4",
            "count": 298,
            "bufferView": 24,
            "byteOffset": 0
        },
        {
            "componentType": 5126,
            "type": "VEC4",
            "count": 298,
            "bufferView": 25,
            "byteOffset": 0
        },
        {
            "componentType": 5126,
            "type": "VEC4",
            "count": 298,
            "bufferView": 26,
            "byteOffset": 0
        },
        {
            "componentType": 5126,
            "type": "VEC4",
            "count": 298,
            "bufferView": 27,
            "byteOffset": 0
        },
        {
            "componentType": 5126,
            "type": "VEC4",
            "count": 298,
            "bufferView": 28,
            "byteOffset": 0
        },
        {
            "componentType": 5126,
            "type": "VEC4",
            "count": 298,
            "bufferView": 29,
            "byteOffset": 0
        },
        {
            "componentType": 5126,
            "type": "VEC4",
            "count": 298,
            "bufferView": 30,
            "byteOffset": 0
        },
        {
            "componentType": 5126,
            "type": "VEC4",
            "count": 298,
            "bufferView": 31,
            "byteOffset": 0
        },
        {
            "componentType": 5126,
            "type": "VEC4",
            "count": 298,
            "bufferView": 32,
            "byteOffset": 0
        },
        {
            "componentType": 5126,
            "type": "VEC4",
            "count": 298,
            "bufferView": 33,
            "byteOffset": 0
        },
        {
            "componentType": 5126,
            "type": "VEC4",
            "count": 298,
            "bufferView": 34,
            "byteOffset": 0
        },
        {
            "componentType": 5126,
            "type": "VEC4",
            "count": 298,
            "bufferView": 35,
            "byteOffset": 0
        },
        {
            "componentType": 5126,
            "type": "VEC4",
            "count": 298,
            "bufferView": 36,
            "byteOffset": 0
        },
        {
            "componentType": 5126,
            "type": "VEC4",
            "count": 298,
            "bufferView": 37,
            "byteOffset": 0
        },
        {
            "componentType": 5126,
            "type": "VEC4",
            "count": 298,
            "bufferView": 38,
            "byteOffset": 0
        },
        {
            "componentType": 5126,
            "type": "VEC4",
            "count": 298,
            "bufferView": 39,
            "byteOffset": 0
        },
        {
            "componentType": 5126,
            "type": "VEC4",
            "count": 298,
            "bufferView": 40,
            "byteOffset": 0
        },
        {
            "componentType": 5126,
            "type": "VEC4",
            "count": 298,
            "bufferView": 41,
            "byteOffset": 0
        },
        {
            "componentType": 5126,
            "type": "VEC4",
            "count": 298,
            "bufferView": 42,
            "byteOffset": 0
        },
        {
            "componentType": 5126,
            "type": "VEC4",
            "count": 298,
            "bufferView": 43,
            "byteOffset": 0
        },
        {
            "componentType": 5126,
            "type": "VEC4",
            "count": 298,
            "bufferView": 44,
            "byteOffset": 0
        },
        {
            "componentType": 5126,
            "type": "VEC4",
            "count": 298,
            "bufferView": 45,
            "byteOffset": 0
        },
        {
            "componentType": 5126,
            "type": "VEC4",
            "count": 298,
            "bufferView": 46,
            "byteOffset": 0
        },
        {
            "componentType": 5126,
            "type": "VEC4",
            "count": 298,
            "bufferView": 47,
            "byteOffset": 0
        },
        {
            "componentType": 5126,
            "type": "VEC4",
            "count": 298,
            "bufferView": 48,
            "byteOffset": 0
        },
        {
            "componentType": 5126,
            "type": "VEC4",
            "count": 298,
            "bufferView": 49,
            "byteOffset": 0
        },
        {
            "componentType": 5126,
            "type": "VEC4",
            "count": 298,
            "bufferView": 50,
            "byteOffset": 0
        },
        {
            "componentType": 5126,
            "type": "VEC4",
            "count": 298,
            "bufferView": 51,
            "byteOffset": 0
        },
        {
            "componentType": 5126,
            "type": "VEC4",
            "count": 298,
            "bufferView": 52,
            "byteOffset": 0
        },
        {
            "componentType": 5126,
            "type": "VEC4",
            "count": 298,
            "bufferView": 53,
            "byteOffset": 0
        },
        {
            "componentType": 5123,
            "type": "SCALAR",
            "count": 51036,
            "bufferView": 54,
            "byteOffset": 0
        },
        {
            "componentType": 5126,
            "type": "VEC3",
            "count": 9247,
            "bufferView": 55,
            "byteOffset": 0,
            "min": [
                -0.0509280003607273,
                0.0895680040121078,
                -0.00512599991634488
            ],
            "max": [
                0.0509280003607273,
                0.166915997862816,
                0.0310329999774694
            ]
        },
        {
            "componentType": 5126,
            "type": "VEC3",
            "count": 9247,
            "bufferView": 56,
            "byteOffset": 0
        },
        {
            "componentType": 5126,
            "type": "VEC2",
            "count": 9247,
            "bufferView": 57,
            "byteOffset": 0
        },
        {
            "componentType": 5123,
            "type": "VEC4",
            "count": 9247,
            "bufferView": 58,
            "byteOffset": 0
        },
        {
            "componentType": 5123,
            "type": "VEC4",
            "count": 9247,
            "bufferView": 59,
            "byteOffset": 0
        },
        {
            "componentType": 5126,
            "type": "VEC4",
            "count": 9247,
            "bufferView": 60,
            "byteOffset": 0
        },
        {
            "componentType": 5126,
            "type": "VEC4",
            "count": 9247,
            "bufferView": 61,
            "byteOffset": 0
        },
        {
            "componentType": 5123,
            "type": "SCALAR",
            "count": 12708,
            "bufferView": 62,
            "byteOffset": 0
        },
        {
            "componentType": 5126,
            "type": "VEC3",
            "count": 2377,
            "bufferView": 63,
            "byteOffset": 0,
            "min": [
                -0.0276640001684427,
                0.00779099995270371,
                -0.00789800006896257
            ],
            "max": [
                0.0271699987351894,
                0.141906008124352,
                0.0175129994750023
            ]
        },
        {
            "componentType": 5126,
            "type": "VEC3",
            "count": 2377,
            "bufferView": 64,
            "byteOffset": 0
        },
        {
            "componentType": 5126,
            "type": "VEC2",
            "count": 2377,
            "bufferView": 65,
            "byteOffset": 0
        },
        {
            "componentType": 5123,
            "type": "VEC4",
            "count": 2377,
            "bufferView": 66,
            "byteOffset": 0
        },
        {
            "componentType": 5123,
            "type": "VEC4",
            "count": 2377,
            "bufferView": 67,
            "byteOffset": 0
        },
        {
            "componentType": 5126,
            "type": "VEC4",
            "count": 2377,
            "bufferView": 68,
            "byteOffset": 0
        },
        {
            "componentType": 5126,
            "type": "VEC4",
            "count": 2377,
            "bufferView": 69,
            "byteOffset": 0
        },
        {
            "componentType": 5123,
            "type": "SCALAR",
            "count": 8556,
            "bufferView": 70,
            "byteOffset": 0
        },
        {
            "componentType": 5126,
            "type": "VEC3",
            "count": 1632,
            "bufferView": 71,
            "byteOffset": 0,
            "min": [
                -0.0225449986755848,
                -0.00125499989371747,
                -0.00405999971553683
            ],
            "max": [
                0.0225449986755848,
                0.0151849994435906,
                0.0192999988794327
            ]
        },
        {
            "componentType": 5126,
            "type": "VEC3",
            "count": 1632,
            "bufferView": 72,
            "byteOffset": 0
        },
        {
            "componentType": 5126,
            "type": "VEC2",
            "count": 1632,
            "bufferView": 73,
            "byteOffset": 0
        },
        {
            "componentType": 5123,
            "type": "VEC4",
            "count": 1632,
            "bufferView": 74,
            "byteOffset": 0
        },
        {
            "componentType": 5123,
            "type": "VEC4",
            "count": 1632,
            "bufferView": 75,
            "byteOffset": 0
        },
        {
            "componentType": 5126,
            "type": "VEC4",
            "count": 1632,
            "bufferView": 76,
            "byteOffset": 0
        },
        {
            "componentType": 5126,
            "type": "VEC4",
            "count": 1632,
            "bufferView": 77,
            "byteOffset": 0
        },
        {
            "componentType": 5123,
            "type": "SCALAR",
            "count": 16056,
            "bufferView": 78,
            "byteOffset": 0
        },
        {
            "componentType": 5126,
            "type": "VEC3",
            "count": 3902,
            "bufferView": 79,
            "byteOffset": 0,
            "min": [
                -0.00781999994069338,
                0.13044199347496,
                -0.0127699989825487
            ],
            "max": [
                0.00764999957755208,
                0.167661994695663,
                0.0125449998304248
            ]
        },
        {
            "componentType": 5126,
            "type": "VEC3",
            "count": 3902,
            "bufferView": 80,
            "byteOffset": 0
        },
        {
            "componentType": 5126,
            "type": "VEC2",
            "count": 3902,
            "bufferView": 81,
            "byteOffset": 0
        },
        {
            "componentType": 5123,
            "type": "VEC4",
            "count": 3902,
            "bufferView": 82,
            "byteOffset": 0
        },
        {
            "componentType": 5123,
            "type": "VEC4",
            "count": 3902,
            "bufferView": 83,
            "byteOffset": 0
        },
        {
            "componentType": 5126,
            "type": "VEC4",
            "count": 3902,
            "bufferView": 84,
            "byteOffset": 0
        },
        {
            "componentType": 5126,
            "type": "VEC4",
            "count": 3902,
            "bufferView": 85,
            "byteOffset": 0
        },
        {
            "componentType": 5123,
            "type": "SCALAR",
            "count": 6120,
            "bufferView": 86,
            "byteOffset": 0
        },
        {
            "componentType": 5126,
            "type": "VEC3",
            "count": 1076,
            "bufferView": 87,
            "byteOffset": 0,
            "min": [
                -0.00457100011408329,
                0.154488995671272,
                0.0105209993198514
            ],
            "max": [
                0.00457100011408329,
                0.15761099755764,
                0.0128680001944304
            ]
        },
        {
            "componentType": 5126,
            "type": "VEC3",
            "count": 1076,
            "bufferView": 88,
            "byteOffset": 0
        },
        {
            "componentType": 5126,
            "type": "VEC2",
            "count": 1076,
            "bufferView": 89,
            "byteOffset": 0
        },
        {
            "componentType": 5123,
            "type": "VEC4",
            "count": 1076,
            "bufferView": 90,
            "byteOffset": 0
        },
        {
            "componentType": 5123,
            "type": "VEC4",
            "count": 1076,
            "bufferView": 91,
            "byteOffset": 0
        },
        {
            "componentType": 5126,
            "type": "VEC4",
            "count": 1076,
            "bufferView": 92,
            "byteOffset": 0
        },
        {
            "componentType": 5126,
            "type": "VEC4",
            "count": 1076,
            "bufferView": 93,
            "byteOffset": 0
        },
        {
            "componentType": 5126,
            "type": "MAT4",
            "count": 42,
            "bufferView": 94,
            "byteOffset": 0
        },
        {
            "componentType": 5126,
            "type": "MAT4",
            "count": 3,
            "bufferView": 95,
            "byteOffset": 0
        },
        {
            "componentType": 5126,
            "type": "MAT4",
            "count": 2,
            "bufferView": 96,
            "byteOffset": 0
        },
        {
            "componentType": 5126,
            "type": "MAT4",
            "count": 21,
            "bufferView": 97,
            "byteOffset": 0
        },
        {
            "componentType": 5126,
            "type": "MAT4",
            "count": 7,
            "bufferView": 98,
            "byteOffset": 0
        }
    ],
    "images": [
        {
            "name": "young_caucasian_female_special_suit.png",
            "uri": "young_caucasian_female_special_suit.png"
        },
        {
            "name": "ponytail01_diffuse.png",
            "uri": "ponytail01_diffuse.png"
        },
        {
            "name": "brown_eye.png",
            "uri": "brown_eye.png"
        },
        {
            "name": "female_casualsuit01_diffuse.png",
            "uri": "female_casualsuit01_diffuse.png"
        },
        {
            "name": "shoes05_diffuse.png",
            "uri": "shoes05_diffuse.png"
        }
    ],
    "samplers": [
        {}
    ],
    "textures": [
        {
            "name": "young_caucasian_female_special_suit",
            "sampler": 0,
            "source": 0
        },
        {
            "name": "ponytail01_diffuse",
            "sampler": 0,
            "source": 1
        },
        {
            "name": "brown_eye",
            "sampler": 0,
            "source": 2
        },
        {
            "name": "female_casualsuit01_diffuse",
            "sampler": 0,
            "source": 3
        },
        {
            "name": "shoes05_diffuse",
            "sampler": 0,
            "source": 4
        }
    ],
    "materials": [
        {
            "name": "young_caucasian_male_detailedmat",
            "alphaMode": "OPAQUE",
            "doubleSided": false,
            "extras": {
                "fromFBX": {
                    "shadingModel": "Phong",
                    "isTruePBR": false
                }
            },
            "pbrMetallicRoughness": {
                "baseColorTexture": {
                    "index": 0,
                    "texCoord": 0
                },
                "baseColorFactor": [
                    1.0,
                    1.0,
                    1.0,
                    1.0
                ],
                "metallicFactor": 0.400000005960464,
                "roughnessFactor": 0.301511347293854
            }
        },
        {
            "name": "ponytail01mat",
            "alphaMode": "BLEND",
            "doubleSided": false,
            "extras": {
                "fromFBX": {
                    "shadingModel": "Phong",
                    "isTruePBR": false
                }
            },
            "pbrMetallicRoughness": {
                "baseColorTexture": {
                    "index": 1,
                    "texCoord": 0
                },
                "baseColorFactor": [
                    1.0,
                    1.0,
                    1.0,
                    1.0
                ],
                "metallicFactor": 0.400000005960464,
                "roughnessFactor": 0.301511347293854
            }
        },
        {
            "name": "Eye_brownmat",
            "alphaMode": "BLEND",
            "doubleSided": false,
            "extras": {
                "fromFBX": {
                    "shadingModel": "Phong",
                    "isTruePBR": false
                }
            },
            "pbrMetallicRoughness": {
                "baseColorTexture": {
                    "index": 2,
                    "texCoord": 0
                },
                "baseColorFactor": [
                    1.0,
                    1.0,
                    1.0,
                    1.0
                ],
                "metallicFactor": 0.400000005960464,
                "roughnessFactor": 0.301511347293854
            }
        },
        {
            "name": "female_casualsuit01mat",
            "alphaMode": "OPAQUE",
            "doubleSided": false,
            "extras": {
                "fromFBX": {
                    "shadingModel": "Phong",
                    "isTruePBR": false
                }
            },
            "pbrMetallicRoughness": {
                "baseColorTexture": {
                    "index": 3,
                    "texCoord": 0
                },
                "baseColorFactor": [
                    1.0,
                    1.0,
                    1.0,
                    1.0
                ],
                "metallicFactor": 0.400000005960464,
                "roughnessFactor": 0.301511347293854
            }
        },
        {
            "name": "Shoes05mat",
            "alphaMode": "OPAQUE",
            "doubleSided": false,
            "extras": {
                "fromFBX": {
                    "shadingModel": "Phong",
                    "isTruePBR": false
                }
            },
            "pbrMetallicRoughness": {
                "baseColorTexture": {
                    "index": 4,
                    "texCoord": 0
                },
                "baseColorFactor": [
                    1.0,
                    1.0,
                    1.0,
                    1.0
                ],
                "metallicFactor": 0.400000005960464,
                "roughnessFactor": 0.301511347293854
            }
        }
    ],
    "meshes": [
        {
            "name": "base.obj",
            "primitives": [
                {
                    "material": 0,
                    "mode": 4,
                    "attributes": {
                        "JOINTS_0": 58,
                        "JOINTS_1": 59,
                        "NORMAL": 56,
                        "POSITION": 55,
                        "TEXCOORD_0": 57,
                        "WEIGHTS_0": 60,
                        "WEIGHTS_1": 61
                    },
                    "indices": 54
                }
            ]
        },
        {
            "name": "female_casualsuit01.obj",
            "primitives": [
                {
                    "material": 3,
                    "mode": 4,
                    "attributes": {
                        "JOINTS_0": 66,
                        "JOINTS_1": 67,
                        "NORMAL": 64,
                        "POSITION": 63,
                        "TEXCOORD_0": 65,
                        "WEIGHTS_0": 68,
                        "WEIGHTS_1": 69
                    },
                    "indices": 62
                }
            ]
        },
        {
            "name": "shoes05.obj",
            "primitives": [
                {
                    "material": 4,
                    "mode": 4,
                    "attributes": {
                        "JOINTS_0": 74,
                        "JOINTS_1": 75,
                        "NORMAL": 72,
                        "POSITION": 71,
                        "TEXCOORD_0": 73,
                        "WEIGHTS_0": 76,
                        "WEIGHTS_1": 77
                    },
                    "indices": 70
                }
            ]
        },
        {
            "name": "ponytail01.obj",
            "primitives": [
                {
                    "material": 1,
                    "mode": 4,
                    "attributes": {
                        "JOINTS_0": 82,
                        "JOINTS_1": 83,
                        "NORMAL": 80,
                        "POSITION": 79,
                        "TEXCOORD_0": 81,
                        "WEIGHTS_0": 84,
                        "WEIGHTS_1": 85
                    },
                    "indices": 78
                }
            ]
        },
        {
            "name": "high-poly.obj",
            "primitives": [
                {
                    "material": 2,
                    "mode": 4,
                    "attributes": {
                        "JOINTS_0": 90,
                        "JOINTS_1": 91,
                        "NORMAL": 88,
                        "POSITION": 87,
                        "TEXCOORD_0": 89,
                        "WEIGHTS_0": 92,
                        "WEIGHTS_1": 93
                    },
                    "indices": 86
                }
            ]
        }
    ],
    "skins": [
        {
            "joints": [
                10,
                11,
                9,
                8,
                37,
                38,
                39,
                40,
                45,
                46,
                47,
                49,
                50,
                51,
                53,
                54,
                55,
                57,
                58,
                59,
                41,
                42,
                43,
                13,
                14,
                15,
                16,
                21,
                22,
                23,
                25,
                26,
                27,
                29,
                30,
                31,
                33,
                34,
                35,
                19,
                17,
                18
            ],
            "inverseBindMatrices": 94,
            "skeleton": 8
        },
        {
            "joints": [
                10,
                11,
                9
            ],
            "inverseBindMatrices": 95,
            "skeleton": 9
        },
        {
            "joints": [
                10,
                11
            ],
            "inverseBindMatrices": 96,
            "skeleton": 10
        },
        {
            "joints": [
                6,
                7,
                8,
                61,
                9,
                13,
                14,
                15,
                16,
                10,
                11,
                37,
                38,
                39,
                66,
                67,
                62,
                63,
                64,
                68,
                69
            ],
            "inverseBindMatrices": 97,
            "skeleton": 6
        },
        {
            "joints": [
                62,
                63,
                64,
                68,
                69,
                67,
                61
            ],
            "inverseBindMatrices": 98,
            "skeleton": 67
        },
        {
            "joints": [
                6,
                7,
                8,
                9,
                10,
                11,
                12,
                13,
                14,
                15,
                16,
                17,
                18,
                19,
                20,
                21,
                22,
                23,
                24,
                25,
                26,
                27,
                28,
                29,
                30,
                31,
                32,
                33,
                34,
                35,
                36,
                37,
                38,
                39,
                40,
                41,
                42,
                43,
                44,
                45,
                46,
                47,
                48,
                49,
                50,
                51,
                52,
                53,
                54,
                55,
                56,
                57,
                58,
                59,
                60,
                61,
                62,
                63,
                64,
                65,
                66,
                67,
                68,
                69,
                70
            ]
        }
    ],
    "animations": [
        {
            "name": "mixamo.com",
            "channels": [
                {
                    "sampler": 0,
                    "target": {
                        "node": 6,
                        "path": "translation"
                    }
                },
                {
                    "sampler": 1,
                    "target": {
                        "node": 6,
                        "path": "rotation"
                    }
                },
                {
                    "sampler": 2,
                    "target": {
                        "node": 7,
                        "path": "rotation"
                    }
                },
                {
                    "sampler": 3,
                    "target": {
                        "node": 8,
                        "path": "rotation"
                    }
                },
                {
                    "sampler": 4,
                    "target": {
                        "node": 9,
                        "path": "rotation"
                    }
                },
                {
                    "sampler": 5,
                    "target": {
                        "node": 10,
                        "path": "rotation"
                    }
                },
                {
                    "sampler": 6,
                    "target": {
                        "node": 11,
                        "path": "rotation"
                    }
                },
                {
                    "sampler": 7,
                    "target": {
                        "node": 13,
                        "path": "rotation"
                    }
                },
                {
                    "sampler": 8,
                    "target": {
                        "node": 14,
                        "path": "rotation"
                    }
                },
                {
                    "sampler": 9,
                    "target": {
                        "node": 15,
                        "path": "rotation"
                    }
                },
                {
                    "sampler": 10,
                    "target": {
                        "node": 16,
                        "path": "rotation"
                    }
                },
                {
                    "sampler": 11,
                    "target": {
                        "node": 17,
                        "path": "rotation"
                    }
                },
                {
                    "sampler": 12,
                    "target": {
                        "node": 18,
                        "path": "rotation"
                    }
                },
                {
                    "sampler": 13,
                    "target": {
                        "node": 19,
                        "path": "rotation"
                    }
                },
                {
                    "sampler": 14,
                    "target": {
                        "node": 21,
                        "path": "rotation"
                    }
                },
                {
                    "sampler": 15,
                    "target": {
                        "node": 22,
                        "path": "rotation"
                    }
                },
                {
                    "sampler": 16,
                    "target": {
                        "node": 23,
                        "path": "rotation"
                    }
                },
                {
                    "sampler": 17,
                    "target": {
                        "node": 25,
                        "path": "rotation"
                    }
                },
                {
                    "sampler": 18,
                    "target": {
                        "node": 26,
                        "path": "rotation"
                    }
                },
                {
                    "sampler": 19,
                    "target": {
                        "node": 27,
                        "path": "rotation"
                    }
                },
                {
                    "sampler": 20,
                    "target": {
                        "node": 29,
                        "path": "rotation"
                    }
                },
                {
                    "sampler": 21,
                    "target": {
                        "node": 30,
                        "path": "rotation"
                    }
                },
                {
                    "sampler": 22,
                    "target": {
                        "node": 31,
                        "path": "rotation"
                    }
                },
                {
                    "sampler": 23,
                    "target": {
                        "node": 33,
                        "path": "rotation"
                    }
                },
                {
                    "sampler": 24,
                    "target": {
                        "node": 34,
                        "path": "rotation"
                    }
                },
                {
                    "sampler": 25,
                    "target": {
                        "node": 35,
                        "path": "rotation"
                    }
                },
                {
                    "sampler": 26,
                    "target": {
                        "node": 37,
                        "path": "rotation"
                    }
                },
                {
                    "sampler": 27,
                    "target": {
                        "node": 38,
                        "path": "rotation"
                    }
                },
                {
                    "sampler": 28,
                    "target": {
                        "node": 39,
                        "path": "rotation"
                    }
                },
                {
                    "sampler": 29,
                    "target": {
                        "node": 40,
                        "path": "rotation"
                    }
                },
                {
                    "sampler": 30,
                    "target": {
                        "node": 41,
                        "path": "rotation"
                    }
                },
                {
                    "sampler": 31,
                    "target": {
                        "node": 42,
                        "path": "rotation"
                    }
                },
                {
                    "sampler": 32,
                    "target": {
                        "node": 43,
                        "path": "rotation"
                    }
                },
                {
                    "sampler": 33,
                    "target": {
                        "node": 45,
                        "path": "rotation"
                    }
                },
                {
                    "sampler": 34,
                    "target": {
                        "node": 46,
                        "path": "rotation"
                    }
                },
                {
                    "sampler": 35,
                    "target": {
                        "node": 47,
                        "path": "rotation"
                    }
                },
                {
                    "sampler": 36,
                    "target": {
                        "node": 49,
                        "path": "rotation"
                    }
                },
                {
                    "sampler": 37,
                    "target": {
                        "node": 50,
                        "path": "rotation"
                    }
                },
                {
                    "sampler": 38,
                    "target": {
                        "node": 51,
                        "path": "rotation"
                    }
                },
                {
                    "sampler": 39,
                    "target": {
                        "node": 53,
                        "path": "rotation"
                    }
                },
                {
                    "sampler": 40,
                    "target": {
                        "node": 54,
                        "path": "rotation"
                    }
                },
                {
                    "sampler": 41,
                    "target": {
                        "node": 55,
                        "path": "rotation"
                    }
                },
                {
                    "sampler": 42,
                    "target": {
                        "node": 57,
                        "path": "rotation"
                    }
                },
                {
                    "sampler": 43,
                    "target": {
                        "node": 58,
                        "path": "rotation"
                    }
                },
                {
                    "sampler": 44,
                    "target": {
                        "node": 59,
                        "path": "rotation"
                    }
                },
                {
                    "sampler": 45,
                    "target": {
                        "node": 61,
                        "path": "rotation"
                    }
                },
                {
                    "sampler": 46,
                    "target": {
                        "node": 62,
                        "path": "rotation"
                    }
                },
                {
                    "sampler": 47,
                    "target": {
                        "node": 63,
                        "path": "rotation"
                    }
                },
                {
                    "sampler": 48,
                    "target": {
                        "node": 64,
                        "path": "rotation"
                    }
                },
                {
                    "sampler": 49,
                    "target": {
                        "node": 66,
                        "path": "rotation"
                    }
                },
                {
                    "sampler": 50,
                    "target": {
                        "node": 67,
                        "path": "rotation"
                    }
                },
                {
                    "sampler": 51,
                    "target": {
                        "node": 68,
                        "path": "rotation"
                    }
                },
                {
                    "sampler": 52,
                    "target": {
                        "node": 69,
                        "path": "rotation"
                    }
                }
            ],
            "samplers": [
                {
                    "input": 0,
                    "interpolation": "LINEAR",
                    "output": 1
                },
                {
                    "input": 0,
                    "interpolation": "LINEAR",
                    "output": 2
                },
                {
                    "input": 0,
                    "interpolation": "LINEAR",
                    "output": 3
                },
                {
                    "input": 0,
                    "interpolation": "LINEAR",
                    "output": 4
                },
                {
                    "input": 0,
                    "interpolation": "LINEAR",
                    "output": 5
                },
                {
                    "input": 0,
                    "interpolation": "LINEAR",
                    "output": 6
                },
                {
                    "input": 0,
                    "interpolation": "LINEAR",
                    "output": 7
                },
                {
                    "input": 0,
                    "interpolation": "LINEAR",
                    "output": 8
                },
                {
                    "input": 0,
                    "interpolation": "LINEAR",
                    "output": 9
                },
                {
                    "input": 0,
                    "interpolation": "LINEAR",
                    "output": 10
                },
                {
                    "input": 0,
                    "interpolation": "LINEAR",
                    "output": 11
                },
                {
                    "input": 0,
                    "interpolation": "LINEAR",
                    "output": 12
                },
                {
                    "input": 0,
                    "interpolation": "LINEAR",
                    "output": 13
                },
                {
                    "input": 0,
                    "interpolation": "LINEAR",
                    "output": 14
                },
                {
                    "input": 0,
                    "interpolation": "LINEAR",
                    "output": 15
                },
                {
                    "input": 0,
                    "interpolation": "LINEAR",
                    "output": 16
                },
                {
                    "input": 0,
                    "interpolation": "LINEAR",
                    "output": 17
                },
                {
                    "input": 0,
                    "interpolation": "LINEAR",
                    "output": 18
                },
                {
                    "input": 0,
                    "interpolation": "LINEAR",
                    "output": 19
                },
                {
                    "input": 0,
                    "interpolation": "LINEAR",
                    "output": 20
                },
                {
                    "input": 0,
                    "interpolation": "LINEAR",
                    "output": 21
                },
                {
                    "input": 0,
                    "interpolation": "LINEAR",
                    "output": 22
                },
                {
                    "input": 0,
                    "interpolation": "LINEAR",
                    "output": 23
                },
                {
                    "input": 0,
                    "interpolation": "LINEAR",
                    "output": 24
                },
                {
                    "input": 0,
                    "interpolation": "LINEAR",
                    "output": 25
                },
                {
                    "input": 0,
                    "interpolation": "LINEAR",
                    "output": 26
                },
                {
                    "input": 0,
                    "interpolation": "LINEAR",
                    "output": 27
                },
                {
                    "input": 0,
                    "interpolation": "LINEAR",
                    "output": 28
                },
                {
                    "input": 0,
                    "interpolation": "LINEAR",
                    "output": 29
                },
                {
                    "input": 0,
                    "interpolation": "LINEAR",
                    "output": 30
                },
                {
                    "input": 0,
                    "interpolation": "LINEAR",
                    "output": 31
                },
                {
                    "input": 0,
                    "interpolation": "LINEAR",
                    "output": 32
                },
                {
                    "input": 0,
                    "interpolation": "LINEAR",
                    "output": 33
                },
                {
                    "input": 0,
                    "interpolation": "LINEAR",
                    "output": 34
                },
                {
                    "input": 0,
                    "interpolation": "LINEAR",
                    "output": 35
                },
                {
                    "input": 0,
                    "interpolation": "LINEAR",
                    "output": 36
                },
                {
                    "input": 0,
                    "interpolation": "LINEAR",
                    "output": 37
                },
                {
                    "input": 0,
                    "interpolation": "LINEAR",
                    "output": 38
                },
                {
                    "input": 0,
                    "interpolation": "LINEAR",
                    "output": 39
                },
                {
                    "input": 0,
                    "interpolation": "LINEAR",
                    "output": 40
                },
                {
                    "input": 0,
                    "interpolation": "LINEAR",
                    "output": 41
                },
                {
                    "input": 0,
                    "interpolation": "LINEAR",
                    "output": 42
                },
                {
                    "input": 0,
                    "interpolation": "LINEAR",
                    "output": 43
                },
                {
                    "input": 0,
                    "interpolation": "LINEAR",
                    "output": 44
                },
                {
                    "input": 0,
                    "interpolation": "LINEAR",
                    "output": 45
                },
                {
                    "input": 0,
                    "interpolation": "LINEAR",
                    "output": 46
                },
                {
                    "input": 0,
                    "interpolation": "LINEAR",
                    "output": 47
                },
                {
                    "input": 0,
                    "interpolation": "LINEAR",
                    "output": 48
                },
                {
                    "input": 0,
                    "interpolation": "LINEAR",
                    "output": 49
                },
                {
                    "input": 0,
                    "interpolation": "LINEAR",
                    "output": 50
                },
                {
                    "input": 0,
                    "interpolation": "LINEAR",
                    "output": 51
                },
                {
                    "input": 0,
                    "interpolation": "LINEAR",
                    "output": 52
                },
                {
                    "input": 0,
                    "interpolation": "LINEAR",
                    "output": 53
                }
            ]
        }
    ],
    "nodes": [
        {
            "name": "RootNode",
            "translation": [
                0.0,
                0.0,
                0.0
            ],
            "rotation": [
                0.0,
                0.0,
                0.0,
                1.0
            ],
            "scale": [
                1.0,
                1.0,
                1.0
            ],
            "children": [
                1,
                2,
                3,
                4,
                5,
                6
            ]
        },
        {
            "name": "base.obj",
            "translation": [
                0.0,
                0.0,
                0.0
            ],
            "rotation": [
                0.0,
                0.0,
                0.0,
                1.0
            ],
            "scale": [
                1.0,
                1.0,
                1.0
            ],
            "mesh": 0,
            "skin": 0
        },
        {
            "name": "ponytail01.obj",
            "translation": [
                0.0,
                0.0,
                0.0
            ],
            "rotation": [
                0.0,
                0.0,
                0.0,
                1.0
            ],
            "scale": [
                1.0,
                1.0,
                1.0
            ],
            "mesh": 3,
            "skin": 1
        },
        {
            "name": "high-poly.obj",
            "translation": [
                0.0,
                0.0,
                0.0
            ],
            "rotation": [
                0.0,
                0.0,
                0.0,
                1.0
            ],
            "scale": [
                1.0,
                1.0,
                1.0
            ],
            "mesh": 4,
            "skin": 2
        },
        {
            "name": "female_casualsuit01.obj",
            "translation": [
                0.0,
                0.0,
                0.0
            ],
            "rotation": [
                0.0,
                0.0,
                0.0,
                1.0
            ],
            "scale": [
                1.0,
                1.0,
                1.0
            ],
            "mesh": 1,
            "skin": 3
        },
        {
            "name": "shoes05.obj",
            "translation": [
                0.0,
                0.0,
                0.0
            ],
            "rotation": [
                0.0,
                0.0,
                0.0,
                1.0
            ],
            "scale": [
                1.0,
                1.0,
                1.0
            ],
            "mesh": 2,
            "skin": 4
        },
        {
            "name": "mixamorig:Hips",
            "translation": [
                0.0,
                0.0975125953555107,
                0.00436135847121477
            ],
            "rotation": [
                0.0,
                0.0,
                0.0,
                1.0
            ],
            "scale": [
                1.0,
                1.0,
                1.0
            ],
            "children": [
                7,
                61,
                66
            ]
        },
        {
            "name": "mixamorig:Spine",
            "translation": [
                0.0,
                0.00788426399230957,
                -0.000402040779590607
            ],
            "rotation": [
                -0.0254715904593468,
                -0.0,
                0.0,
                0.999675571918488
            ],
            "scale": [
                1.0,
                1.0,
                1.0
            ],
            "children": [
                8
            ]
        },
        {
            "name": "mixamorig:Spine1",
            "translation": [
                0.0,
                0.00921025406569242,
                -9.04158432152302e-12
            ],
            "rotation": [
                -9.64363611188901e-09,
                -0.0,
                0.0,
                1.0
            ],
            "scale": [
                1.0,
                1.0,
                1.0
            ],
            "children": [
                9
            ]
        },
        {
            "name": "mixamorig:Spine2",
            "translation": [
                0.0,
                0.0105260098353028,
                2.49850032156551e-12
            ],
            "rotation": [
                6.93889390390723e-18,
                0.0,
                0.0,
                1.0
            ],
            "scale": [
                1.0,
                1.0,
                1.0
            ],
            "children": [
                10,
                13,
                37
            ]
        },
        {
            "name": "mixamorig:Neck",
            "translation": [
                0.0,
                0.0118417572230101,
                2.43632836127716e-10
            ],
            "rotation": [
                0.0254715997725725,
                0.0,
                0.0,
                0.999675571918488
            ],
            "scale": [
                1.0,
                1.0,
                1.0
            ],
            "children": [
                11
            ]
        },
        {
            "name": "mixamorig:Head",
            "translation": [
                0.0,
                0.00998508464545012,
                -0.00128642353229225
            ],
            "rotation": [
                0.0,
                0.0,
                0.0,
                1.0
            ],
            "scale": [
                1.0,
                1.0,
                1.0
            ],
            "children": [
                12
            ]
        },
        {
            "name": "mixamorig:HeadTop_End",
            "translation": [
                0.0,
                0.0189741980284452,
                -0.00244453269988298
            ],
            "rotation": [
                0.0,
                0.0,
                0.0,
                1.0
            ],
            "scale": [
                1.0,
                1.0,
                1.0
            ]
        },
        {
            "name": "mixamorig:LeftShoulder",
            "translation": [
                0.00515917176380754,
                0.0101426560431719,
                -8.19322231109254e-05
            ],
            "rotation": [
                -0.568537294864655,
                -0.417467147111893,
                0.577660858631134,
                -0.410846024751663
            ],
            "scale": [
                1.0,
                1.0,
                1.0
            ],
            "children": [
                14
            ]
        },
        {
            "name": "mixamorig:LeftArm",
            "translation": [
                -2.05887412153827e-12,
                0.0109775085002184,
                -4.51165146908572e-11
            ],
            "rotation": [
                0.242962270975113,
                -0.00257611670531332,
                0.000645235646516085,
                0.970032095909119
            ],
            "scale": [
                1.0,
                1.0,
                1.0
            ],
            "children": [
                15
            ]
        },
        {
            "name": "mixamorig:LeftForeArm",
            "translation": [
                -3.2279044021033e-11,
                0.0235179830342531,
                -5.36885924606878e-10
            ],
            "rotation": [
                0.00886055361479521,
                0.0269966963678598,
                0.311716288328171,
                0.949750304222107
            ],
            "scale": [
                1.0,
                1.0,
                1.0
            ],
            "children": [
                16
            ]
        },
        {
            "name": "mixamorig:LeftHand",
            "translation": [
                -6.77970568574437e-10,
                0.0215175654739141,
                1.11532005853121e-10
            ],
            "rotation": [
                0.0668676570057869,
                0.00590522959828377,
                0.0424487590789795,
                0.996841013431549
            ],
            "scale": [
                1.0,
                1.0,
                1.0
            ],
            "children": [
                17,
                21,
                25,
                29,
                33
            ]
        },
        {
            "name": "mixamorig:LeftHandThumb1",
            "translation": [
                -0.00216850475408137,
                0.00351878092624247,
                0.00088285724632442
            ],
            "rotation": [
                0.100451923906803,
                0.0310297776013613,
                0.293505549430847,
                0.950158417224884
            ],
            "scale": [
                1.0,
                1.0,
                1.0
            ],
            "children": [
                18
            ]
        },
        {
            "name": "mixamorig:LeftHandThumb2",
            "translation": [
                0.000155073139467277,
                0.00337767880409956,
                5.51305667784163e-11
            ],
            "rotation": [
                0.107047073543072,
                -8.3845996466774e-18,
                -1.30552567774846e-17,
                0.994253933429718
            ],
            "scale": [
                1.0,
                1.0,
                1.0
            ],
            "children": [
                19
            ]
        },
        {
            "name": "mixamorig:LeftHandThumb3",
            "translation": [
                -0.000193026731722057,
                0.00307510723359883,
                -6.16286188748205e-11
            ],
            "rotation": [
                0.0506265573203564,
                -1.5265161600968e-17,
                -2.70173979826254e-17,
                0.998717665672302
            ],
            "scale": [
                1.0,
                1.0,
                1.0
            ],
            "children": [
                20
            ]
        },
        {
            "name": "mixamorig:LeftHandThumb4",
            "translation": [
                3.79535667889286e-05,
                0.00273742014542222,
                -3.36058091077174e-11
            ],
            "rotation": [
                -7.26312954224539e-10,
                -2.77555756156289e-17,
                2.77555756156289e-17,
                1.0
            ],
            "scale": [
                1.0,
                1.0,
                1.0
            ]
        },
        {
            "name": "mixamorig:LeftHandIndex1",
            "translation": [
                -0.00285573722794652,
                0.0104122096672654,
                -4.42320924776141e-05
            ],
            "rotation": [
                0.043708860874176,
                0.00429044384509325,
                0.0975961536169052,
                0.994256556034088
            ],
            "scale": [
                1.0,
                1.0,
                1.0
            ],
            "children": [
                22
            ]
        },
        {
            "name": "mixamorig:LeftHandIndex2",
            "translation": [
                2.7183841666556e-05,
                0.00254248501732945,
                6.15614221925742e-13
            ],
            "rotation": [
                0.121179014444351,
                -2.0502305102476e-17,
                -5.34203761324137e-17,
                0.992630660533905
            ],
            "scale": [
                1.0,
                1.0,
                1.0
            ],
            "children": [
                23
            ]
        },
        {
            "name": "mixamorig:LeftHandIndex3",
            "translation": [
                -1.30441367218737e-05,
                0.00235891854390502,
                8.90914494955375e-11
            ],
            "rotation": [
                0.0143410172313452,
                0.0,
                0.0,
                0.999897181987762
            ],
            "scale": [
                1.0,
                1.0,
                1.0
            ],
            "children": [
                24
            ]
        },
        {
            "name": "mixamorig:LeftHandIndex4",
            "translation": [
                -1.41395539685618e-05,
                0.00205750344321132,
                4.85998949417699e-11
            ],
            "rotation": [
                -1.00722363782779e-08,
                -1.38777869806338e-17,
                -8.32667268468867e-17,
                1.0
            ],
            "scale": [
                1.0,
                1.0,
                1.0
            ]
        },
        {
            "name": "mixamorig:LeftHandMiddle1",
            "translation": [
                -0.000711025262717158,
                0.0107177495956421,
                -7.77068271418102e-05
            ],
            "rotation": [
                0.0358367525041103,
                0.000240739580476657,
                0.00671333400532603,
                0.999335050582886
            ],
            "scale": [
                1.0,
                1.0,
                1.0
            ],
            "children": [
                26
            ]
        },
        {
            "name": "mixamorig:LeftHandMiddle2",
            "translation": [
                1.14818940346595e-05,
                0.00284288381226361,
                8.94101667703318e-11
            ],
            "rotation": [
                0.108640417456627,
                9.046132378483e-18,
                8.27738794030378e-17,
                0.994081139564514
            ],
            "scale": [
                1.0,
                1.0,
                1.0
            ],
            "children": [
                27
            ]
        },
        {
            "name": "mixamorig:LeftHandMiddle3",
            "translation": [
                -6.03591070102993e-06,
                0.00264980690553784,
                5.85432466393421e-11
            ],
            "rotation": [
                0.000729272374883294,
                1.38980256086812e-17,
                2.77454476162088e-17,
                0.999999761581421
            ],
            "scale": [
                1.0,
                1.0,
                1.0
            ],
            "children": [
                28
            ]
        },
        {
            "name": "mixamorig:LeftHandMiddle4",
            "translation": [
                -5.44636213817284e-06,
                0.00233323662541807,
                8.75368527664122e-11
            ],
            "rotation": [
                -1.64399782676128e-08,
                -8.32667268468867e-17,
                1.11022302462516e-16,
                1.0
            ],
            "scale": [
                1.0,
                1.0,
                1.0
            ]
        },
        {
            "name": "mixamorig:LeftHandRing1",
            "translation": [
                0.000974542228505015,
                0.0104578277096152,
                -0.000188071833690628
            ],
            "rotation": [
                0.0219870265573263,
                -0.00219807168468833,
                -0.0994509160518646,
                0.994797110557556
            ],
            "scale": [
                1.0,
                1.0,
                1.0
            ],
            "children": [
                30
            ]
        },
        {
            "name": "mixamorig:LeftHandRing2",
            "translation": [
                -7.75597527535865e-06,
                0.00260779610835016,
                -7.80030207092608e-12
            ],
            "rotation": [
                0.14555911719799,
                -2.50296416116298e-17,
                1.15899981393949e-16,
                0.989349544048309
            ],
            "scale": [
                1.0,
                1.0,
                1.0
            ],
            "children": [
                31
            ]
        },
        {
            "name": "mixamorig:LeftHandRing3",
            "translation": [
                7.09883852323401e-06,
                0.00246936012990773,
                -8.88269735543901e-11
            ],
            "rotation": [
                -0.0643351897597313,
                -7.2816510799696e-17,
                5.09320017828949e-17,
                0.997928321361542
            ],
            "scale": [
                1.0,
                1.0,
                1.0
            ],
            "children": [
                32
            ]
        },
        {
            "name": "mixamorig:LeftHandRing4",
            "translation": [
                6.57052623864729e-07,
                0.00221750140190125,
                -4.18296126902806e-11
            ],
            "rotation": [
                8.98593732756581e-09,
                5.55111512312578e-17,
                -5.55111512312578e-17,
                1.0
            ],
            "scale": [
                1.0,
                1.0,
                1.0
            ]
        },
        {
            "name": "mixamorig:LeftHandPinky1",
            "translation": [
                0.00259222183376551,
                0.00995651539415121,
                -6.34662501397543e-05
            ],
            "rotation": [
                0.103928215801716,
                -0.0156517270952463,
                -0.148097276687622,
                0.983372330665588
            ],
            "scale": [
                1.0,
                1.0,
                1.0
            ],
            "children": [
                34
            ]
        },
        {
            "name": "mixamorig:LeftHandPinky2",
            "translation": [
                -2.2489623461297e-06,
                0.00181111705023795,
                -9.61046346670269e-12
            ],
            "rotation": [
                0.103632099926472,
                3.04824989276406e-17,
                2.47297621697997e-17,
                0.99461567401886
            ],
            "scale": [
                1.0,
                1.0,
                1.0
            ],
            "children": [
                35
            ]
        },
        {
            "name": "mixamorig:LeftHandPinky3",
            "translation": [
                8.54150675877463e-06,
                0.00171468791086227,
                -2.16429010130303e-11
            ],
            "rotation": [
                -0.0822471678256989,
                4.37751259352453e-17,
                -2.42373117726449e-17,
                0.996611952781677
            ],
            "scale": [
                1.0,
                1.0,
                1.0
            ],
            "children": [
                36
            ]
        },
        {
            "name": "mixamorig:LeftHandPinky4",
            "translation": [
                -6.29279475106159e-06,
                0.00135264336131513,
                5.03584717329031e-12
            ],
            "rotation": [
                -1.63451208123888e-08,
                1.38777878078145e-17,
                2.26834118327424e-25,
                1.0
            ],
            "scale": [
                1.0,
                1.0,
                1.0
            ]
        },
        {
            "name": "mixamorig:RightShoulder",
            "translation": [
                -0.00515917176380754,
                0.0101431347429752,
                -9.13268304429948e-05
            ],
            "rotation": [
                0.567995250225067,
                -0.417862057685852,
                0.578156173229218,
                0.410497426986694
            ],
            "scale": [
                1.0,
                1.0,
                1.0
            ],
            "children": [
                38
            ]
        },
        {
            "name": "mixamorig:RightArm",
            "translation": [
                2.78308821301254e-12,
                0.0109775085002184,
                -4.50776291294197e-11
            ],
            "rotation": [
                0.243087410926819,
                0.00679763546213508,
                -0.00170356244780123,
                0.969979047775269
            ],
            "scale": [
                1.0,
                1.0,
                1.0
            ],
            "children": [
                39
            ]
        },
        {
            "name": "mixamorig:RightForeArm",
            "translation": [
                -4.265559780392e-11,
                0.0235199965536594,
                -7.24462434487094e-11
            ],
            "rotation": [
                0.010201109573245,
                -0.0313045121729374,
                -0.309663504362106,
                0.950276017189026
            ],
            "scale": [
                1.0,
                1.0,
                1.0
            ],
            "children": [
                40
            ]
        },
        {
            "name": "mixamorig:RightHand",
            "translation": [
                6.98945137878049e-11,
                0.0214947648346424,
                -4.89322526942004e-10
            ],
            "rotation": [
                0.0686710774898529,
                0.0031150181312114,
                -0.0431092120707035,
                0.996702671051025
            ],
            "scale": [
                1.0,
                1.0,
                1.0
            ],
            "children": [
                41,
                45,
                49,
                53,
                57
            ]
        },
        {
            "name": "mixamorig:RightHandThumb1",
            "translation": [
                0.00215516262687743,
                0.00357680465094745,
                0.000959750381298363
            ],
            "rotation": [
                0.107963219285011,
                -0.0328005887567997,
                -0.288836508989334,
                0.950705826282501
            ],
            "scale": [
                1.0,
                1.0,
                1.0
            ],
            "children": [
                42
            ]
        },
        {
            "name": "mixamorig:RightHandThumb2",
            "translation": [
                -0.000159006522153504,
                0.00342413294129074,
                4.88721597913244e-11
            ],
            "rotation": [
                0.0970372930169106,
                1.22927997391414e-17,
                5.45758481864768e-17,
                0.995280742645264
            ],
            "scale": [
                1.0,
                1.0,
                1.0
            ],
            "children": [
                43
            ]
        },
        {
            "name": "mixamorig:RightHandThumb3",
            "translation": [
                0.000191482205991633,
                0.00306080817244947,
                -1.75339270880315e-10
            ],
            "rotation": [
                0.0695748031139374,
                -4.34635633944435e-17,
                -2.47916832560942e-17,
                0.997576713562012
            ],
            "scale": [
                1.0,
                1.0,
                1.0
            ],
            "children": [
                44
            ]
        },
        {
            "name": "mixamorig:RightHandThumb4",
            "translation": [
                -3.24755128531251e-05,
                0.00256746844388545,
                6.8521063822935e-11
            ],
            "rotation": [
                2.28825114412246e-09,
                1.38777878078145e-17,
                -2.77555756156289e-17,
                1.0
            ],
            "scale": [
                1.0,
                1.0,
                1.0
            ]
        },
        {
            "name": "mixamorig:RightHandIndex1",
            "translation": [
                0.00293700955808163,
                0.0106475353240967,
                -5.93681725149509e-05
            ],
            "rotation": [
                0.0609316937625408,
                -0.00575599959120154,
                -0.0938714370131493,
                0.993701338768005
            ],
            "scale": [
                1.0,
                1.0,
                1.0
            ],
            "children": [
                46
            ]
        },
        {
            "name": "mixamorig:RightHandIndex2",
            "translation": [
                -1.2044657523802e-05,
                0.00241038878448308,
                1.70196825383107e-11
            ],
            "rotation": [
                0.104549147188663,
                6.21078041198049e-17,
                -6.52909870228111e-18,
                0.994519710540771
            ],
            "scale": [
                1.0,
                1.0,
                1.0
            ],
            "children": [
                47
            ]
        },
        {
            "name": "mixamorig:RightHandIndex3",
            "translation": [
                1.08360081867431e-05,
                0.00224618543870747,
                4.95596272354071e-11
            ],
            "rotation": [
                -0.0412129648029804,
                -2.5444214608474e-17,
                -5.66078802269398e-17,
                0.999150395393372
            ],
            "scale": [
                1.0,
                1.0,
                1.0
            ],
            "children": [
                48
            ]
        },
        {
            "name": "mixamorig:RightHandIndex4",
            "translation": [
                1.20887023058458e-06,
                0.00191177928354591,
                7.13268541452372e-11
            ],
            "rotation": [
                1.94292693045384e-09,
                1.61781159838584e-25,
                8.32667268468867e-17,
                1.0
            ],
            "scale": [
                1.0,
                1.0,
                1.0
            ]
        },
        {
            "name": "mixamorig:RightHandMiddle1",
            "translation": [
                0.000766825978644192,
                0.0107192974537611,
                -1.54511217260733e-05
            ],
            "rotation": [
                0.0122955329716206,
                0.000215516178286634,
                0.0175217669457197,
                0.999770879745483
            ],
            "scale": [
                1.0,
                1.0,
                1.0
            ],
            "children": [
                50
            ]
        },
        {
            "name": "mixamorig:RightHandMiddle2",
            "translation": [
                7.84466863024136e-07,
                0.00268517481163144,
                -5.78528683292667e-11
            ],
            "rotation": [
                0.131108596920967,
                1.41569860799695e-17,
                5.412223226472e-17,
                0.991367995738983
            ],
            "scale": [
                1.0,
                1.0,
                1.0
            ],
            "children": [
                51
            ]
        },
        {
            "name": "mixamorig:RightHandMiddle3",
            "translation": [
                -6.15418969118764e-07,
                0.002686548512429,
                -2.60514457228744e-11
            ],
            "rotation": [
                -0.0727648958563805,
                4.35426286261138e-17,
                -2.46525514770628e-17,
                0.997349143028259
            ],
            "scale": [
                1.0,
                1.0,
                1.0
            ],
            "children": [
                52
            ]
        },
        {
            "name": "mixamorig:RightHandMiddle4",
            "translation": [
                -1.68854896287485e-07,
                0.0023693919647485,
                4.70027575888432e-12
            ],
            "rotation": [
                2.11924966464494e-09,
                -4.16333634234434e-17,
                8.82314914731733e-26,
                1.0
            ],
            "scale": [
                1.0,
                1.0,
                1.0
            ]
        },
        {
            "name": "mixamorig:RightHandRing1",
            "translation": [
                -0.00116068124771118,
                0.0109122591093183,
                -0.000223741968511604
            ],
            "rotation": [
                0.0376069806516171,
                0.0028294927906245,
                0.0749727189540863,
                0.996472179889679
            ],
            "scale": [
                1.0,
                1.0,
                1.0
            ],
            "children": [
                54
            ]
        },
        {
            "name": "mixamorig:RightHandRing2",
            "translation": [
                9.27830478758551e-06,
                0.00252330326475203,
                -3.77346695557002e-11
            ],
            "rotation": [
                0.12470942735672,
                -4.47316875217689e-17,
                3.35963144644781e-17,
                0.992193281650543
            ],
            "scale": [
                1.0,
                1.0,
                1.0
            ],
            "children": [
                55
            ]
        },
        {
            "name": "mixamorig:RightHandRing3",
            "translation": [
                -7.39713141229004e-06,
                0.00229513528756797,
                -1.99041668563771e-11
            ],
            "rotation": [
                -0.0401718877255917,
                -1.49815792715664e-17,
                2.71756740297537e-17,
                0.999192774295807
            ],
            "scale": [
                1.0,
                1.0,
                1.0
            ],
            "children": [
                56
            ]
        },
        {
            "name": "mixamorig:RightHandRing4",
            "translation": [
                -1.88089541097725e-06,
                0.00201591989025474,
                -9.4990855459276e-12
            ],
            "rotation": [
                -5.91385496129249e-10,
                -1.38777878078145e-17,
                -2.77555756156289e-17,
                1.0
            ],
            "scale": [
                1.0,
                1.0,
                1.0
            ]
        },
        {
            "name": "mixamorig:RightHandPinky1",
            "translation": [
                -0.00254315347410738,
                0.00991264078766108,
                4.95544336445164e-05
            ],
            "rotation": [
                0.0478572882711887,
                0.00760353496298194,
                0.156726762652397,
                0.986452519893646
            ],
            "scale": [
                1.0,
                1.0,
                1.0
            ],
            "children": [
                58
            ]
        },
        {
            "name": "mixamorig:RightHandPinky2",
            "translation": [
                1.36689632199705e-05,
                0.00179370446130633,
                9.98868522616991e-12
            ],
            "rotation": [
                0.143909871578217,
                -2.74666629343601e-17,
                3.99430132242464e-18,
                0.98959082365036
            ],
            "scale": [
                1.0,
                1.0,
                1.0
            ],
            "children": [
                59
            ]
        },
        {
            "name": "mixamorig:RightHandPinky3",
            "translation": [
                -1.65719575306866e-05,
                0.00171637407038361,
                6.24022777895306e-11
            ],
            "rotation": [
                -0.083208866417408,
                2.7659323225191e-17,
                2.30950998373913e-18,
                0.996532142162323
            ],
            "scale": [
                1.0,
                1.0,
                1.0
            ],
            "children": [
                60
            ]
        },
        {
            "name": "mixamorig:RightHandPinky4",
            "translation": [
                2.90283514914336e-06,
                0.00139728165231645,
                4.33776382868789e-11
            ],
            "rotation": [
                2.56223198213945e-09,
                1.38777878078145e-17,
                -3.55581117625271e-26,
                1.0
            ],
            "scale": [
                1.0,
                1.0,
                1.0
            ]
        },
        {
            "name": "mixamorig:LeftUpLeg",
            "translation": [
                0.0102087128907442,
                -0.00439100246876478,
                -1.40550728247035e-05
            ],
            "rotation": [
                0.000184618445928209,
                0.0063093351200223,
                0.999552249908447,
                -0.0292480532079935
            ],
            "scale": [
                1.0,
                1.0,
                1.0
            ],
            "children": [
                62
            ]
        },
        {
            "name": "mixamorig:LeftLeg",
            "translation": [
                3.90851795373237e-11,
                0.0439132936298847,
                -3.13642319581253e-12
            ],
            "rotation": [
                -0.0470192953944206,
                -0.000759245012886822,
                0.0161275528371334,
                0.998763501644135
            ],
            "scale": [
                1.0,
                1.0,
                1.0
            ],
            "children": [
                63
            ]
        },
        {
            "name": "mixamorig:LeftFoot",
            "translation": [
                6.85664233723848e-11,
                0.0398830287158489,
                2.43558562207369e-10
            ],
            "rotation": [
                0.45712348818779,
                0.0214742664247751,
                -0.0110411243513227,
                0.889075398445129
            ],
            "scale": [
                1.0,
                1.0,
                1.0
            ],
            "children": [
                64
            ]
        },
        {
            "name": "mixamorig:LeftToeBase",
            "translation": [
                -6.14168698537254e-12,
                0.0151530476287007,
                1.60254989833852e-10
            ],
            "rotation": [
                0.298161804676056,
                0.045176699757576,
                -0.0141292214393616,
                0.953340947628021
            ],
            "scale": [
                1.0,
                1.0,
                1.0
            ],
            "children": [
                65
            ]
        },
        {
            "name": "mixamorig:LeftToe_End",
            "translation": [
                -6.19515072922128e-12,
                0.0053300354629755,
                1.11349462636467e-11
            ],
            "rotation": [
                4.54322857112999e-10,
                4.33680868994202e-18,
                6.93889390390723e-18,
                1.0
            ],
            "scale": [
                1.0,
                1.0,
                1.0
            ]
        },
        {
            "name": "mixamorig:RightUpLeg",
            "translation": [
                -0.0102087128907442,
                -0.00439100246876478,
                0.000143383440445177
            ],
            "rotation": [
                -0.000212000639294274,
                0.00724530685693026,
                0.999545931816101,
                0.0292471256107092
            ],
            "scale": [
                1.0,
                1.0,
                1.0
            ],
            "children": [
                67
            ]
        },
        {
            "name": "mixamorig:RightLeg",
            "translation": [
                4.06403175001735e-11,
                0.0439143963158131,
                -2.02097540091817e-11
            ],
            "rotation": [
                -0.051937211304903,
                0.000839389394968748,
                -0.0161376930773258,
                0.998519599437714
            ],
            "scale": [
                1.0,
                1.0,
                1.0
            ],
            "children": [
                68
            ]
        },
        {
            "name": "mixamorig:RightFoot",
            "translation": [
                -2.26966744010237e-11,
                0.0399102233350277,
                -1.37499719943257e-10
            ],
            "rotation": [
                0.462354511022568,
                -0.0212179273366928,
                0.011067820712924,
                0.886372148990631
            ],
            "scale": [
                1.0,
                1.0,
                1.0
            ],
            "children": [
                69
            ]
        },
        {
            "name": "mixamorig:RightToeBase",
            "translation": [
                -2.41610290802052e-12,
                0.0152218518778682,
                -2.28090518694657e-10
            ],
            "rotation": [
                0.296763151884079,
                -0.045103020966053,
                0.0140335178002715,
                0.953782141208649
            ],
            "scale": [
                1.0,
                1.0,
                1.0
            ],
            "children": [
                70
            ]
        },
        {
            "name": "mixamorig:RightToe_End",
            "translation": [
                1.66349711783198e-11,
                0.00537980906665325,
                1.36245147108749e-11
            ],
            "rotation": [
                4.01812680350666e-11,
                2.42861286636753e-17,
                -6.93889390390723e-18,
                1.0
            ],
            "scale": [
                1.0,
                1.0,
                1.0
            ]
        }
    ]
}