[gd_resource type="StandardMaterial3D" load_steps=2 format=3 uid="uid://bcilwenre8vq2"]

[ext_resource type="Texture2D" uid="uid://dgjs33hbdpjs6" path="res://Characters/Aelor/Animations/Breathing Idle_out/brown_eye.png" id="1_85p4e"]

[resource]
diffuse_mode = 2
specular_mode = 2
vertex_color_use_as_albedo = true
albedo_texture = ExtResource("1_85p4e")
